Final Project for UCLA MAS 405
…
# how many games have X questions?
scores %>% 
  group_by(game_id) %>%
  summarise(rnd_cnt = n_distinct(rnd), 
            question_cnt = n_distinct(paste(rnd,question,sep='-'))) %>% 
  ungroup() %>% 
  group_by(question_cnt) %>% 
  summarise(game_id_cnt = n_distinct(game_id)) %>% 
  arrange(desc(game_id_cnt))

## # A tibble: 27 x 2
##    question_cnt game_id_cnt
##           <int>       <int>
##  1           61        3016
##  2           59         564
##  3           60         488
##  4           58         429
##  5           57         270
##  6           56         188
##  7           55         127
##  8           54          62
##  9           53          32
## 10           51          27
## #  with 17 more rows
…
