Final Project - 412
…
## # A tibble: 2 x 3
## # Groups:   y [2]
##       y     n  freq
##   <dbl> <int> <dbl>
## 1     0 36548     1
## 2     1  4640     1

age

First, we look at age.

## # A tibble: 78 x 3
##      age `mean(y)` `n()`
##    <int>     <dbl> <int>
##  1    17     0.4       5
##  2    18     0.429    28
##  3    19     0.476    42
##  4    20     0.354    65
##  5    21     0.284   102
##  6    22     0.263   137
##  7    23     0.212   226
##  8    24     0.186   463
##  9    25     0.156   598
## 10    26     0.175   698
## #  with 68 more rows
…
